lab3/sync_counter_4.vcd
$date
	Sun Nov 03 14:10:20 2019
$end
$version
	Icarus Verilog
$end
$timescale
	1s
$end
$scope module counter_tb $end
$var wire 4 ! Q [0:3] $end
$var reg 1 " clk $end
$scope module c $end
$var wire 4 # Q [0:3] $end
$var wire 1 $ clk $end
$var wire 1 % w1 $end
$var wire 1 & w2 $end
$scope module f1 $end
$var wire 1 $ clk $end
$var wire 1 ' j $end
$var wire 1 ( k $end
$var reg 1 ) q $end
$upscope $end
$scope module f2 $end
$var wire 1 $ clk $end
$var wire 1 * j $end
$var wire 1 + k $end
$var reg 1 , q $end
$upscope $end
$scope module f3 $end
$var wire 1 $ clk $end
$var wire 1 % j $end
$var wire 1 % k $end
$var reg 1 - q $end
$upscope $end
$scope module f4 $end
$var wire 1 $ clk $end
$var wire 1 & j $end
$var wire 1 & k $end
$var reg 1 . q $end
$upscope $end
$upscope $end
$upscope $end
$enddefinitions $end
#0
$dumpvars
0.
0-
0,
0+
0*
0)
1(
1'
0&
0%
0$
b0 #
0"
b0 !
$end
#5
1*
1+
1)
b1000 !
b1000 #
1"
1$
#10
0"
0$
#15
0*
0+
1,
0)
b100 !
b100 #
1"
1$
#20
0"
0$
#25
1%
1*
1+
1)
b1100 !
b1100 #
1"
1$
#30
0"
0$
#35
0%
0*
0+
1-
0,
0)
b10 !
b10 #
1"
1$
#40
0"
0$
#45
1*
1+
1)
b1010 !
b1010 #
1"
1$
#50
0"
0$
#55
0*
0+
1,
0)
b110 !
b110 #
1"
1$
#60
0"
0$
#65
1&
1%
1*
1+
1)
b1110 !
b1110 #
1"
1$
#70
0"
0$
#75
0&
0%
0*
0+
1.
0-
0,
0)
b1 !
b1 #
1"
1$
#80
0"
0$
#85
1*
1+
1)
b1001 !
b1001 #
1"
1$
#90
0"
0$
#95
0*
0+
1,
0)
b101 !
b101 #
1"
1$
#100
0"
0$
#105
1%
1*
1+
1)
b1101 !
b1101 #
1"
1$
#110
0"
0$
#115
0%
0*
0+
1-
0,
0)
b11 !
b11 #
1"
1$
#120
0"
0$
#125
1*
1+
1)
b1011 !
b1011 #
1"
1$
#130
0"
0$
#135
0*
0+
1,
0)
b111 !
b111 #
1"
1$
#140
0"
0$
#145
1&
1%
1*
1+
1)
b1111 !
b1111 #
1"
1$
#150
0"
0$
#155
0&
0%
0*
0+
0.
0-
0,
0)
b0 !
b0 #
1"
1$
#160
0"
0$
#165
1*
1+
1)
b1000 !
b1000 #
1"
1$
#170
0"
0$
#175
0*
0+
1,
0)
b100 !
b100 #
1"
1$
#180
0"
0$
#185
1%
1*
1+
1)
b1100 !
b1100 #
1"
1$
#190
0"
0$
#195
0%
0*
0+
1-
0,
0)
b10 !
b10 #
1"
1$
#200
0"
0$
#205
1*
1+
1)
b1010 !
b1010 #
1"
1$
#210
0"
0$
#215
0*
0+
1,
0)
b110 !
b110 #
1"
1$
#220
0"
0$
#225
1&
1%
1*
1+
1)
b1110 !
b1110 #
1"
1$
#230
0"
0$
#235
0&
0%
0*
0+
1.
0-
0,
0)
b1 !
b1 #
1"
1$
#240
0"
0$
#245
1*
1+
1)
b1001 !
b1001 #
1"
1$
#250
0"
0$
#255
0*
0+
1,
0)
b101 !
b101 #
1"
1$
#260
0"
0$
#265
1%
1*
1+
1)
b1101 !
b1101 #
1"
1$
#270
0"
0$
#275
0%
0*
0+
1-
0,
0)
b11 !
b11 #
1"
1$
#280
0"
0$
#285
1*
1+
1)
b1011 !
b1011 #
1"
1$
#290
0"
0$
#295
0*
0+
1,
0)
b111 !
b111 #
1"
1$
#300
0"
0$
#305
1&
1%
1*
1+
1)
b1111 !
b1111 #
1"
1$
#310
0"
0$
#315
0&
0%
0*
0+
0.
0-
0,
0)
b0 !
b0 #
1"
1$
#320
0"
0$
#325
1*
1+
1)
b1000 !
b1000 #
1"
1$
#330
0"
0$
#335
0*
0+
1,
0)
b100 !
b100 #
1"
1$
#340
0"
0$
#345
1%
1*
1+
1)
b1100 !
b1100 #
1"
1$
#350
0"
0$
#355
0%
0*
0+
1-
0,
0)
b10 !
b10 #
1"
1$
#360
0"
0$
#365
1*
1+
1)
b1010 !
b1010 #
1"
1$
#370
0"
0$
#375
0*
0+
1,
0)
b110 !
b110 #
1"
1$
#380
0"
0$
#385
1&
1%
1*
1+
1)
b1110 !
b1110 #
1"
1$
#390
0"
0$
#395
0&
0%
0*
0+
1.
0-
0,
0)
b1 !
b1 #
1"
1$
#400
0"
0$
#405
1*
1+
1)
b1001 !
b1001 #
1"
1$
#410
0"
0$
#415
0*
0+
1,
0)
b101 !
b101 #
1"
1$
#420
0"
0$
#425
1%
1*
1+
1)
b1101 !
b1101 #
1"
1$
#430
0"
0$
#435
0%
0*
0+
1-
0,
0)
b11 !
b11 #
1"
1$
#440
0"
0$
#445
1*
1+
1)
b1011 !
b1011 #
1"
1$
#450
0"
0$
#455
0*
0+
1,
0)
b111 !
b111 #
1"
1$
#460
0"
0$
#465
1&
1%
1*
1+
1)
b1111 !
b1111 #
1"
1$
#470
0"
0$
#475
0&
0%
0*
0+
0.
0-
0,
0)
b0 !
b0 #
1"
1$
#480
0"
0$
#485
1*
1+
1)
b1000 !
b1000 #
1"
1$
#490
0"
0$
#495
0*
0+
1,
0)
b100 !
b100 #
1"
1$
#500
0"
0$
#505
1%
1*
1+
1)
b1100 !
b1100 #
1"
1$
#510
0"
0$
#515
0%
0*
0+
1-
0,
0)
b10 !
b10 #
1"
1$
#520
0"
0$
#525
1*
1+
1)
b1010 !
b1010 #
1"
1$
#530
0"
0$
#535
0*
0+
1,
0)
b110 !
b110 #
1"
1$
#540
0"
0$
#545
1&
1%
1*
1+
1)
b1110 !
b1110 #
1"
1$
#550
0"
0$
#555
0&
0%
0*
0+
1.
0-
0,
0)
b1 !
b1 #
1"
1$
#560
0"
0$
#565
1*
1+
1)
b1001 !
b1001 #
1"
1$
#570
0"
0$
#575
0*
0+
1,
0)
b101 !
b101 #
1"
1$
#580
0"
0$
#585
1%
1*
1+
1)
b1101 !
b1101 #
1"
1$
#590
0"
0$
#595
0%
0*
0+
1-
0,
0)
b11 !
b11 #
1"
1$
#600
0"
0$
#605
1*
1+
1)
b1011 !
b1011 #
1"
1$
#610
0"
0$
#615
0*
0+
1,
0)
b111 !
b111 #
1"
1$
#620
0"
0$
#625
1&
1%
1*
1+
1)
b1111 !
b1111 #
1"
1$
#630
0"
0$
#635
0&
0%
0*
0+
0.
0-
0,
0)
b0 !
b0 #
1"
1$
#640
0"
0$
#645
1*
1+
1)
b1000 !
b1000 #
1"
1$
#650
0"
0$
#655
0*
0+
1,
0)
b100 !
b100 #
1"
1$
#660
0"
0$
#665
1%
1*
1+
1)
b1100 !
b1100 #
1"
1$
#670
0"
0$
#675
0%
0*
0+
1-
0,
0)
b10 !
b10 #
1"
1$
#680
0"
0$
#685
1*
1+
1)
b1010 !
b1010 #
1"
1$
#690
0"
0$
#695
0*
0+
1,
0)
b110 !
b110 #
1"
1$
#700
0"
0$
#705
1&
1%
1*
1+
1)
b1110 !
b1110 #
1"
1$
#710
0"
0$
#715
0&
0%
0*
0+
1.
0-
0,
0)
b1 !
b1 #
1"
1$
#720
0"
0$
#725
1*
1+
1)
b1001 !
b1001 #
1"
1$
#730
0"
0$
#735
0*
0+
1,
0)
b101 !
b101 #
1"
1$
#740
0"
0$
#745
1%
1*
1+
1)
b1101 !
b1101 #
1"
1$
#750
0"
0$
#755
0%
0*
0+
1-
0,
0)
b11 !
b11 #
1"
1$
#760
0"
0$
#765
1*
1+
1)
b1011 !
b1011 #
1"
1$
#770
0"
0$
#775
0*
0+
1,
0)
b111 !
b111 #
1"
1$
#780
0"
0$
#785
1&
1%
1*
1+
1)
b1111 !
b1111 #
1"
1$
#790
0"
0$
#795
0&
0%
0*
0+
0.
0-
0,
0)
b0 !
b0 #
1"
1$
#800
0"
0$
#805
1*
1+
1)
b1000 !
b1000 #
1"
1$
#810
0"
0$
#815
0*
0+
1,
0)
b100 !
b100 #
1"
1$
#820
0"
0$
#825
1%
1*
1+
1)
b1100 !
b1100 #
1"
1$
#830
0"
0$
#835
0%
0*
0+
1-
0,
0)
b10 !
b10 #
1"
1$
#840
0"
0$
#845
1*
1+
1)
b1010 !
b1010 #
1"
1$
#850
0"
0$
#855
0*
0+
1,
0)
b110 !
b110 #
1"
1$
#860
0"
0$
#865
1&
1%
1*
1+
1)
b1110 !
b1110 #
1"
1$
#870
0"
0$
#875
0&
0%
0*
0+
1.
0-
0,
0)
b1 !
b1 #
1"
1$
#880
0"
0$
#885
1*
1+
1)
b1001 !
b1001 #
1"
1$
#890
0"
0$
#895
0*
0+
1,
0)
b101 !
b101 #
1"
1$
#900
0"
0$
#905
1%
1*
1+
1)
b1101 !
b1101 #
1"
1$
#910
0"
0$
#915
0%
0*
0+
1-
0,
0)
b11 !
b11 #
1"
1$
#920
0"
0$
#925
1*
1+
1)
b1011 !
b1011 #
1"
1$
#930
0"
0$
#935
0*
0+
1,
0)
b111 !
b111 #
1"
1$
#940
0"
0$
#945
1&
1%
1*
1+
1)
b1111 !
b1111 #
1"
1$
#950
0"
0$
#955
0&
0%
0*
0+
0.
0-
0,
0)
b0 !
b0 #
1"
1$
#960
0"
0$
#965
1*
1+
1)
b1000 !
b1000 #
1"
1$
#970
0"
0$
#975
0*
0+
1,
0)
b100 !
b100 #
1"
1$
#980
0"
0$
#985
1%
1*
1+
1)
b1100 !
b1100 #
1"
1$
#990
0"
0$
#995
0%
0*
0+
1-
0,
0)
b10 !
b10 #
1"
1$
#1000
0"
0$
#1005
1*
1+
1)
b1010 !
b1010 #
1"
1$
#1010
0"
0$
#1015
0*
0+
1,
0)
b110 !
b110 #
1"
1$
#1020
0"
0$
#1025
1&
1%
1*
1+
1)
b1110 !
b1110 #
1"
1$
#1030
0"
0$
#1035
0&
0%
0*
0+
1.
0-
0,
0)
b1 !
b1 #
1"
1$
#1040
0"
0$
#1045
1*
1+
1)
b1001 !
b1001 #
1"
1$
#1050
0"
0$
#1055
0*
0+
1,
0)
b101 !
b101 #
1"
1$
#1060
0"
0$
#1065
1%
1*
1+
1)
b1101 !
b1101 #
1"
1$
#1070
0"
0$
#1075
0%
0*
0+
1-
0,
0)
b11 !
b11 #
1"
1$
#1080
0"
0$
#1085
1*
1+
1)
b1011 !
b1011 #
1"
1$
#1090
0"
0$
#1095
0*
0+
1,
0)
b111 !
b111 #
1"
1$
#1100
0"
0$
#1105
1&
1%
1*
1+
1)
b1111 !
b1111 #
1"
1$
#1110
0"
0$
#1115
0&
0%
0*
0+
0.
0-
0,
0)
b0 !
b0 #
1"
1$
#1120
0"
0$
#1125
1*
1+
1)
b1000 !
b1000 #
1"
1$
#1130
0"
0$
#1135
0*
0+
1,
0)
b100 !
b100 #
1"
1$
#1140
0"
0$
#1145
1%
1*
1+
1)
b1100 !
b1100 #
1"
1$
#1150
0"
0$
#1155
0%
0*
0+
1-
0,
0)
b10 !
b10 #
1"
1$
#1160
0"
0$
#1165
1*
1+
1)
b1010 !
b1010 #
1"
1$
#1170
0"
0$
#1175
0*
0+
1,
0)
b110 !
b110 #
1"
1$
#1180
0"
0$
#1185
1&
1%
1*
1+
1)
b1110 !
b1110 #
1"
1$
#1190
0"
0$
#1195
0&
0%
0*
0+
1.
0-
0,
0)
b1 !
b1 #
1"
1$
#1200
0"
0$
#1205
1*
1+
1)
b1001 !
b1001 #
1"
1$
#1210
0"
0$
#1215
0*
0+
1,
0)
b101 !
b101 #
1"
1$
#1220
0"
0$
#1225
1%
1*
1+
1)
b1101 !
b1101 #
1"
1$
#1230
0"
0$
#1235
0%
0*
0+
1-
0,
0)
b11 !
b11 #
1"
1$
#1240
0"
0$
#1245
1*
1+
1)
b1011 !
b1011 #
1"
1$
#1250
0"
0$
#1255
0*
0+
1,
0)
b111 !
b111 #
1"
1$
#1260
0"
0$
#1265
1&
1%
1*
1+
1)
b1111 !
b1111 #
1"
1$
#1270
0"
0$
#1275
0&
0%
0*
0+
0.
0-
0,
0)
b0 !
b0 #
1"
1$
#1280
0"
0$
#1285
1*
1+
1)
b1000 !
b1000 #
1"
1$
#1290
0"
0$
#1295
0*
0+
1,
0)
b100 !
b100 #
1"
1$
#1300
0"
0$
#1305
1%
1*
1+
1)
b1100 !
b1100 #
1"
1$
#1310
0"
0$
#1315
0%
0*
0+
1-
0,
0)
b10 !
b10 #
1"
1$
#1320
0"
0$
#1325
1*
1+
1)
b1010 !
b1010 #
1"
1$
#1330
0"
0$
#1335
0*
0+
1,
0)
b110 !
b110 #
1"
1$
#1340
0"
0$
#1345
1&
1%
1*
1+
1)
b1110 !
b1110 #
1"
1$
#1350
0"
0$
#1355
0&
0%
0*
0+
1.
0-
0,
0)
b1 !
b1 #
1"
1$
#1360
0"
0$
#1365
1*
1+
1)
b1001 !
b1001 #
1"
1$
#1370
0"
0$
#1375
0*
0+
1,
0)
b101 !
b101 #
1"
1$
#1380
0"
0$
#1385
1%
1*
1+
1)
b1101 !
b1101 #
1"
1$
#1390
0"
0$
#1395
0%
0*
0+
1-
0,
0)
b11 !
b11 #
1"
1$
#1400
0"
0$
#1405
1*
1+
1)
b1011 !
b1011 #
1"
1$
#1410
0"
0$
#1415
0*
0+
1,
0)
b111 !
b111 #
1"
1$
#1420
0"
0$
#1425
1&
1%
1*
1+
1)
b1111 !
b1111 #
1"
1$
#1430
0"
0$
#1435
0&
0%
0*
0+
0.
0-
0,
0)
b0 !
b0 #
1"
1$
#1440
0"
0$
#1445
1*
1+
1)
b1000 !
b1000 #
1"
1$
#1450
0"
0$
#1455
0*
0+
1,
0)
b100 !
b100 #
1"
1$
#1460
0"
0$
#1465
1%
1*
1+
1)
b1100 !
b1100 #
1"
1$
#1470
0"
0$
#1475
0%
0*
0+
1-
0,
0)
b10 !
b10 #
1"
1$
#1480
0"
0$
#1485
1*
1+
1)
b1010 !
b1010 #
1"
1$
#1490
0"
0$
#1495
0*
0+
1,
0)
b110 !
b110 #
1"
1$
#1500
0"
0$
#1505
1&
1%
1*
1+
1)
b1110 !
b1110 #
1"
1$
#1510
0"
0$
#1515
0&
0%
0*
0+
1.
0-
0,
0)
b1 !
b1 #
1"
1$
#1520
0"
0$
#1525
1*
1+
1)
b1001 !
b1001 #
1"
1$
#1530
0"
0$
#1535
0*
0+
1,
0)
b101 !
b101 #
1"
1$
#1540
0"
0$
#1545
1%
1*
1+
1)
b1101 !
b1101 #
1"
1$
#1550
0"
0$
#1555
0%
0*
0+
1-
0,
0)
b11 !
b11 #
1"
1$
#1560
0"
0$
#1565
1*
1+
1)
b1011 !
b1011 #
1"
1$
#1570
0"
0$
#1575
0*
0+
1,
0)
b111 !
b111 #
1"
1$
#1580
0"
0$
#1585
1&
1%
1*
1+
1)
b1111 !
b1111 #
1"
1$
#1590
0"
0$
#1595
0&
0%
0*
0+
0.
0-
0,
0)
b0 !
b0 #
1"
1$
#1600
0"
0$
#1605
1*
1+
1)
b1000 !
b1000 #
1"
1$
#1610
0"
0$
#1615
0*
0+
1,
0)
b100 !
b100 #
1"
1$
#1620
0"
0$
#1625
1%
1*
1+
1)
b1100 !
b1100 #
1"
1$
#1630
0"
0$
#1635
0%
0*
0+
1-
0,
0)
b10 !
b10 #
1"
1$
#1640
0"
0$
#1645
1*
1+
1)
b1010 !
b1010 #
1"
1$
#1650
0"
0$
#1655
0*
0+
1,
0)
b110 !
b110 #
1"
1$
#1660
0"
0$
#1665
1&
1%
1*
1+
1)
b1110 !
b1110 #
1"
1$
#1670
0"
0$
#1675
0&
0%
0*
0+
1.
0-
0,
0)
b1 !
b1 #
1"
1$
#1680
0"
0$
#1685
1*
1+
1)
b1001 !
b1001 #
1"
1$
#1690
0"
0$
#1695
0*
0+
1,
0)
b101 !
b101 #
1"
1$
#1700
0"
0$
#1705
1%
1*
1+
1)
b1101 !
b1101 #
1"
1$
#1710
0"
0$
#1715
0%
0*
0+
1-
0,
0)
b11 !
b11 #
1"
1$
#1720
0"
0$
#1725
1*
1+
1)
b1011 !
b1011 #
1"
1$
#1730
0"
0$
#1735
0*
0+
1,
0)
b111 !
b111 #
1"
1$
#1740
0"
0$
#1745
1&
1%
1*
1+
1)
b1111 !
b1111 #
1"
1$
#1750
0"
0$
#1755
0&
0%
0*
0+
0.
0-
0,
0)
b0 !
b0 #
1"
1$
#1760
0"
0$
#1765
1*
1+
1)
b1000 !
b1000 #
1"
1$
#1770
0"
0$
#1775
0*
0+
1,
0)
b100 !
b100 #
1"
1$
#1780
0"
0$
#1785
1%
1*
1+
1)
b1100 !
b1100 #
1"
1$
#1790
0"
0$
#1795
0%
0*
0+
1-
0,
0)
b10 !
b10 #
1"
1$
#1800
0"
0$
#1805
1*
1+
1)
b1010 !
b1010 #
1"
1$
#1810
0"
0$
#1815
0*
0+
1,
0)
b110 !
b110 #
1"
1$
#1820
0"
0$
#1825
1&
1%
1*
1+
1)
b1110 !
b1110 #
1"
1$
#1830
0"
0$
#1835
0&
0%
0*
0+
1.
0-
0,
0)
b1 !
b1 #
1"
1$
#1840
0"
0$
#1845
1*
1+
1)
b1001 !
b1001 #
1"
1$
#1850
0"
0$
#1855
0*
0+
1,
0)
b101 !
b101 #
1"
1$
#1860
0"
0$
#1865
1%
1*
1+
1)
b1101 !
b1101 #
1"
1$
#1870
0"
0$
#1875
0%
0*
0+
1-
0,
0)
b11 !
b11 #
1"
1$
#1880
0"
0$
#1885
1*
1+
1)
b1011 !
b1011 #
1"
1$
#1890
0"
0$
#1895
0*
0+
1,
0)
b111 !
b111 #
1"
1$
#1900
0"
0$
#1905
1&
1%
1*
1+
1)
b1111 !
b1111 #
1"
1$
#1910
0"
0$
#1915
0&
0%
0*
0+
0.
0-
0,
0)
b0 !
b0 #
1"
1$
#1920
0"
0$
#1925
1*
1+
1)
b1000 !
b1000 #
1"
1$
#1930
0"
0$
#1935
0*
0+
1,
0)
b100 !
b100 #
1"
1$
#1940
0"
0$
#1945
1%
1*
1+
1)
b1100 !
b1100 #
1"
1$
#1950
0"
0$
#1955
0%
0*
0+
1-
0,
0)
b10 !
b10 #
1"
1$
#1960
0"
0$
#1965
1*
1+
1)
b1010 !
b1010 #
1"
1$
#1970
0"
0$
#1975
0*
0+
1,
0)
b110 !
b110 #
1"
1$
#1980
0"
0$
#1985
1&
1%
1*
1+
1)
b1110 !
b1110 #
1"
1$
#1990
0"
0$
#1995
0&
0%
0*
0+
1.
0-
0,
0)
b1 !
b1 #
1"
1$
#2000
0"
0$
#2005
1*
1+
1)
b1001 !
b1001 #
1"
1$
#2010
0"
0$
#2015
0*
0+
1,
0)
b101 !
b101 #
1"
1$
#2020
0"
0$
#2025
1%
1*
1+
1)
b1101 !
b1101 #
1"
1$
#2030
0"
0$
#2035
0%
0*
0+
1-
0,
0)
b11 !
b11 #
1"
1$
#2040
0"
0$
#2045
1*
1+
1)
b1011 !
b1011 #
1"
1$
#2050
0"
0$
#2055
0*
0+
1,
0)
b111 !
b111 #
1"
1$
#2060
0"
0$
#2065
1&
1%
1*
1+
1)
b1111 !
b1111 #
1"
1$
#2070
0"
0$
#2075
0&
0%
0*
0+
0.
0-
0,
0)
b0 !
b0 #
1"
1$
#2080
0"
0$
#2085
1*
1+
1)
b1000 !
b1000 #
1"
1$
#2090
0"
0$
#2095
0*
0+
1,
0)
b100 !
b100 #
1"
1$
#2100
0"
0$
#2105
1%
1*
1+
1)
b1100 !
b1100 #
1"
1$
#2110
0"
0$
#2115
0%
0*
0+
1-
0,
0)
b10 !
b10 #
1"
1$
#2120
0"
0$
#2125
1*
1+
1)
b1010 !
b1010 #
1"
1$
#2130
0"
0$
#2135
0*
0+
1,
0)
b110 !
b110 #
1"
1$
#2140
0"
0$
#2145
1&
1%
1*
1+
1)
b1110 !
b1110 #
1"
1$
#2150
0"
0$
#2155
0&
0%
0*
0+
1.
0-
0,
0)
b1 !
b1 #
1"
1$
#2160
0"
0$
#2165
1*
1+
1)
b1001 !
b1001 #
1"
1$
#2170
0"
0$
#2175
0*
0+
1,
0)
b101 !
b101 #
1"
1$
#2180
0"
0$
#2185
1%
1*
1+
1)
b1101 !
b1101 #
1"
1$
#2190
0"
0$
#2195
0%
0*
0+
1-
0,
0)
b11 !
b11 #
1"
1$
#2200
0"
0$
#2205
1*
1+
1)
b1011 !
b1011 #
1"
1$
#2210
0"
0$
#2215
0*
0+
1,
0)
b111 !
b111 #
1"
1$
#2220
0"
0$
#2225
1&
1%
1*
1+
1)
b1111 !
b1111 #
1"
1$
#2230
0"
0$
#2235
0&
0%
0*
0+
0.
0-
0,
0)
b0 !
b0 #
1"
1$
#2240
0"
0$
#2245
1*
1+
1)
b1000 !
b1000 #
1"
1$
#2250
0"
0$
#2255
0*
0+
1,
0)
b100 !
b100 #
1"
1$
#2260
0"
0$
#2265
1%
1*
1+
1)
b1100 !
b1100 #
1"
1$
#2270
0"
0$
#2275
0%
0*
0+
1-
0,
0)
b10 !
b10 #
1"
1$
#2280
0"
0$
#2285
1*
1+
1)
b1010 !
b1010 #
1"
1$
#2290
0"
0$
#2295
0*
0+
1,
0)
b110 !
b110 #
1"
1$
#2300
0"
0$
#2305
1&
1%
1*
1+
1)
b1110 !
b1110 #
1"
1$
#2310
0"
0$
#2315
0&
0%
0*
0+
1.
0-
0,
0)
b1 !
b1 #
1"
1$
#2320
0"
0$
#2325
1*
1+
1)
b1001 !
b1001 #
1"
1$
#2330
0"
0$
#2335
0*
0+
1,
0)
b101 !
b101 #
1"
1$
#2340
0"
0$
#2345
1%
1*
1+
1)
b1101 !
b1101 #
1"
1$
#2350
0"
0$
#2355
0%
0*
0+
1-
0,
0)
b11 !
b11 #
1"
1$
#2360
0"
0$
#2365
1*
1+
1)
b1011 !
b1011 #
1"
1$
#2370
0"
0$
#2375
0*
0+
1,
0)
b111 !
b111 #
1"
1$
#2380
0"
0$
#2385
1&
1%
1*
1+
1)
b1111 !
b1111 #
1"
1$
#2390
0"
0$
#2395
0&
0%
0*
0+
0.
0-
0,
0)
b0 !
b0 #
1"
1$
#2400
0"
0$
#2405
1*
1+
1)
b1000 !
b1000 #
1"
1$
#2410
0"
0$
#2415
0*
0+
1,
0)
b100 !
b100 #
1"
1$
#2420
0"
0$
#2425
1%
1*
1+
1)
b1100 !
b1100 #
1"
1$
#2430
0"
0$
#2435
0%
0*
0+
1-
0,
0)
b10 !
b10 #
1"
1$
#2440
0"
0$
#2445
1*
1+
1)
b1010 !
b1010 #
1"
1$
#2450
0"
0$
#2455
0*
0+
1,
0)
b110 !
b110 #
1"
1$
#2460
0"
0$
#2465
1&
1%
1*
1+
1)
b1110 !
b1110 #
1"
1$
#2470
0"
0$
#2475
0&
0%
0*
0+
1.
0-
0,
0)
b1 !
b1 #
1"
1$
#2480
0"
0$
#2485
1*
1+
1)
b1001 !
b1001 #
1"
1$
#2490
0"
0$
#2495
0*
0+
1,
0)
b101 !
b101 #
1"
1$
#2500
0"
0$
#2505
1%
1*
1+
1)
b1101 !
b1101 #
1"
1$
#2510
0"
0$
#2515
0%
0*
0+
1-
0,
0)
b11 !
b11 #
1"
1$
#2520
0"
0$
#2525
1*
1+
1)
b1011 !
b1011 #
1"
1$
#2530
0"
0$
#2535
0*
0+
1,
0)
b111 !
b111 #
1"
1$
#2540
0"
0$
#2545
1&
1%
1*
1+
1)
b1111 !
b1111 #
1"
1$
#2550
0"
0$
#2555
0&
0%
0*
0+
0.
0-
0,
0)
b0 !
b0 #
1"
1$
#2560
0"
0$
#2565
1*
1+
1)
b1000 !
b1000 #
1"
1$
#2570
0"
0$
#2575
0*
0+
1,
0)
b100 !
b100 #
1"
1$
#2580
0"
0$
#2585
1%
1*
1+
1)
b1100 !
b1100 #
1"
1$
#2590
0"
0$
#2595
0%
0*
0+
1-
0,
0)
b10 !
b10 #
1"
1$
#2600
0"
0$
#2605
1*
1+
1)
b1010 !
b1010 #
1"
1$
#2610
0"
0$
#2615
0*
0+
1,
0)
b110 !
b110 #
1"
1$
#2620
0"
0$
#2625
1&
1%
1*
1+
1)
b1110 !
b1110 #
1"
1$
#2630
0"
0$
#2635
0&
0%
0*
0+
1.
0-
0,
0)
b1 !
b1 #
1"
1$
#2640
0"
0$
#2645
1*
1+
1)
b1001 !
b1001 #
1"
1$
#2650
0"
0$
#2655
0*
0+
1,
0)
b101 !
b101 #
1"
1$
#2660
0"
0$
#2665
1%
1*
1+
1)
b1101 !
b1101 #
1"
1$
#2670
0"
0$
#2675
0%
0*
0+
1-
0,
0)
b11 !
b11 #
1"
1$
#2680
0"
0$
#2685
1*
1+
1)
b1011 !
b1011 #
1"
1$
#2690
0"
0$
#2695
0*
0+
1,
0)
b111 !
b111 #
1"
1$
#2700
0"
0$
#2705
1&
1%
1*
1+
1)
b1111 !
b1111 #
1"
1$
#2710
0"
0$
#2715
0&
0%
0*
0+
0.
0-
0,
0)
b0 !
b0 #
1"
1$
#2720
0"
0$
#2725
1*
1+
1)
b1000 !
b1000 #
1"
1$
#2730
0"
0$
#2735
0*
0+
1,
0)
b100 !
b100 #
1"
1$
#2740
0"
0$
#2745
1%
1*
1+
1)
b1100 !
b1100 #
1"
1$
#2750
0"
0$
#2755
0%
0*
0+
1-
0,
0)
b10 !
b10 #
1"
1$
#2760
0"
0$
#2765
1*
1+
1)
b1010 !
b1010 #
1"
1$
#2770
0"
0$
#2775
0*
0+
1,
0)
b110 !
b110 #
1"
1$
#2780
0"
0$
#2785
1&
1%
1*
1+
1)
b1110 !
b1110 #
1"
1$
#2790
0"
0$
#2795
0&
0%
0*
0+
1.
0-
0,
0)
b1 !
b1 #
1"
1$
#2800
0"
0$
#2805
1*
1+
1)
b1001 !
b1001 #
1"
1$
#2810
0"
0$
#2815
0*
0+
1,
0)
b101 !
b101 #
1"
1$
#2820
0"
0$
#2825
1%
1*
1+
1)
b1101 !
b1101 #
1"
1$
#2830
0"
0$
#2835
0%
0*
0+
1-
0,
0)
b11 !
b11 #
1"
1$
#2840
0"
0$
#2845
1*
1+
1)
b1011 !
b1011 #
1"
1$
#2850
0"
0$
#2855
0*
0+
1,
0)
b111 !
b111 #
1"
1$
#2860
0"
0$
#2865
1&
1%
1*
1+
1)
b1111 !
b1111 #
1"
1$
#2870
0"
0$
#2875
0&
0%
0*
0+
0.
0-
0,
0)
b0 !
b0 #
1"
1$
#2880
0"
0$
#2885
1*
1+
1)
b1000 !
b1000 #
1"
1$
#2890
0"
0$
#2895
0*
0+
1,
0)
b100 !
b100 #
1"
1$
#2900
0"
0$
#2905
1%
1*
1+
1)
b1100 !
b1100 #
1"
1$
#2910
0"
0$
#2915
0%
0*
0+
1-
0,
0)
b10 !
b10 #
1"
1$
#2920
0"
0$
#2925
1*
1+
1)
b1010 !
b1010 #
1"
1$
#2930
0"
0$
#2935
0*
0+
1,
0)
b110 !
b110 #
1"
1$
#2940
0"
0$
#2945
1&
1%
1*
1+
1)
b1110 !
b1110 #
1"
1$
#2950
0"
0$
#2955
0&
0%
0*
0+
1.
0-
0,
0)
b1 !
b1 #
1"
1$
#2960
0"
0$
#2965
1*
1+
1)
b1001 !
b1001 #
1"
1$
#2970
0"
0$
#2975
0*
0+
1,
0)
b101 !
b101 #
1"
1$
#2980
0"
0$
#2985
1%
1*
1+
1)
b1101 !
b1101 #
1"
1$
#2990
0"
0$
#2995
0%
0*
0+
1-
0,
0)
b11 !
b11 #
1"
1$
#3000
0"
0$
#3005
1*
1+
1)
b1011 !
b1011 #
1"
1$
#3010
0"
0$
#3015
0*
0+
1,
0)
b111 !
b111 #
1"
1$
#3020
0"
0$
#3025
1&
1%
1*
1+
1)
b1111 !
b1111 #
1"
1$
#3030
0"
0$
#3035
0&
0%
0*
0+
0.
0-
0,
0)
b0 !
b0 #
1"
1$
#3040
0"
0$
#3045
1*
1+
1)
b1000 !
b1000 #
1"
1$
#3050
0"
0$
#3055
0*
0+
1,
0)
b100 !
b100 #
1"
1$
#3060
0"
0$
#3065
1%
1*
1+
1)
b1100 !
b1100 #
1"
1$
#3070
0"
0$
#3075
0%
0*
0+
1-
0,
0)
b10 !
b10 #
1"
1$
#3080
0"
0$
#3085
1*
1+
1)
b1010 !
b1010 #
1"
1$
#3090
0"
0$
#3095
0*
0+
1,
0)
b110 !
b110 #
1"
1$
#3100
0"
0$
#3105
1&
1%
1*
1+
1)
b1110 !
b1110 #
1"
1$
#3110
0"
0$
#3115
0&
0%
0*
0+
1.
0-
0,
0)
b1 !
b1 #
1"
1$
#3120
0"
0$
#3125
1*
1+
1)
b1001 !
b1001 #
1"
1$
#3130
0"
0$
#3135
0*
0+
1,
0)
b101 !
b101 #
1"
1$
#3140
0"
0$
#3145
1%
1*
1+
1)
b1101 !
b1101 #
1"
1$
#3150
0"
0$
#3155
0%
0*
0+
1-
0,
0)
b11 !
b11 #
1"
1$
#3160
0"
0$
#3165
1*
1+
1)
b1011 !
b1011 #
1"
1$
#3170
0"
0$
#3175
0*
0+
1,
0)
b111 !
b111 #
1"
1$
#3180
0"
0$
#3185
1&
1%
1*
1+
1)
b1111 !
b1111 #
1"
1$
#3190
0"
0$
#3195
0&
0%
0*
0+
0.
0-
0,
0)
b0 !
b0 #
1"
1$
#3200
0"
0$
#3205
1*
1+
1)
b1000 !
b1000 #
1"
1$
#3210
0"
0$
#3215
0*
0+
1,
0)
b100 !
b100 #
1"
1$
#3220
0"
0$
#3225
1%
1*
1+
1)
b1100 !
b1100 #
1"
1$
#3230
0"
0$
#3235
0%
0*
0+
1-
0,
0)
b10 !
b10 #
1"
1$
#3240
0"
0$
#3245
1*
1+
1)
b1010 !
b1010 #
1"
1$
#3250
0"
0$
#3255
0*
0+
1,
0)
b110 !
b110 #
1"
1$
#3260
0"
0$
#3265
1&
1%
1*
1+
1)
b1110 !
b1110 #
1"
1$
